
Log started (V12.6.3.0) Sun Jan 12 01:04:28 2020

Warning, line 98589319: Name '_ot#12#1' does not exist.
Warning, line 98589320: Name '_ot#12#2' does not exist.
Warning, line 98589321: Name '_ot#12#3' does not exist.
Warning, line 98589322: Name '_ot#12#4' does not exist.
Warning, line 98589323: Name '_ot#12#5' does not exist.
Warning, line 98589324: Name '_ot#12#6' does not exist.
Warning, line 98589325: Name '_ot#12#7' does not exist.
Warning, line 98589326: Name '_ot#12#8' does not exist.
Warning, line 98589327: Name '_ot#12#9' does not exist.
Warning, line 98589328: Name '_ot#12#10' does not exist.
Warning, line 98589329: Name '_ot#12#11' does not exist.
Warning, line 98589330: Name '_ot#12#12' does not exist.
Warning, line 98589331: Name '_ot#12#13' does not exist.
Warning, line 98589332: Name '_ot#12#14' does not exist.
Warning, line 98589333: Name '_ot#12#15' does not exist.
Warning, line 98589334: Name '_ot#12#16' does not exist.
Warning, line 98589335: Name '_ot#12#17' does not exist.
Warning, line 98589336: Name '_ot#12#18' does not exist.
Warning, line 98589337: Name '_ot#12#19' does not exist.
Warning, line 98589338: Name '_ot#12#20' does not exist.
370003 name warnings not printed.

Problem 'wt12.in.lp' read.
Read time = 535.56 sec. (25467.17 ticks)
Parallel mode: deterministic, using up to 32 threads for concurrent optimization.
Presolve has eliminated 4624144 rows and 45340 columns...
Presolve has eliminated 48438801 rows and 3829515 columns...
Presolve has eliminated 94860776 rows and 7829988 columns...
Tried aggregator 1 time.
LP Presolve eliminated 94860776 rows and 7829988 columns.
All rows and columns eliminated.
Presolve time = 255.32 sec. (41002.62 ticks)

Dual simplex - Optimal:  Objective =  5.8000000000e+01
Solution time =  319.47 sec.  Iterations = 0 (0)
Deterministic time = 72705.06 ticks  (227.58 ticks/sec)


Solution written to file 'wt12.in.xml'.
